Time,Load (kW),Pressure_kpa,Cloud Cover (%),Humidity (%),Temperature (C) ,Wind Direction (deg),Wind Speed (kmh)
2021-01-16 00:00:00,993076.4321,1013.525,5.125,78.83333333,4.921886217,246,7.34
2021-01-16 01:00:00,981128.9321,1013,24.625,79.33333333,4.359386217,79.875,2.645
2021-01-16 02:00:00,969686.9321,1012.6,39.875,80.58333333,2.966886217,75.25,1.56125
2021-01-16 03:00:00,962993.9321,1012.2,44.5,81.08333333,2.339386217,68.875,2.05625
2021-01-16 04:00:00,966989.4321,1011.9625,43.5,83.08333333,0.981886217,60.875,2.52125
2021-01-16 05:00:00,967853.9321,1012.075,46.5,78.08333333,1.731886217,78.5,7.155
2021-01-16 06:00:00,979408.4321,1012.7,53.625,76.16666667,1.741886217,73,8.47375
2021-01-16 07:00:00,1015612.932,1013.4875,63.5,75.75,1.881886217,60.875,4.2575
2021-01-16 08:00:00,1063649.432,1014.1625,62.125,76.83333333,2.339386217,61.5,3.29625
2021-01-16 09:00:00,1122373.432,1014.7375,57.625,70.75,7.171886217,88.625,0.94
2021-01-16 10:00:00,1161788.432,1015.075,46.5,63.75,13.52688622,53.25,6.27875
2021-01-16 11:00:00,1172122.932,1014.6,42.25,59.16666667,19.01938622,25.5,7.43
2021-01-16 12:00:00,1173436.432,1013.6625,26.25,56.41666667,21.83938622,89,10.6825
2021-01-16 13:00:00,1162912.932,1012.5375,20.875,55.66666667,22.80188622,311,11.35
2021-01-16 14:00:00,1165588.932,1011.5875,17.125,58.08333333,23.26438622,282.5,15.13875
2021-01-16 15:00:00,1152814.432,1011.1125,11,58.25,21.68938622,276.75,20.8525
2021-01-16 16:00:00,1154970.432,1010.925,2.5,52.33333333,21.08188622,305,18.31375
2021-01-16 17:00:00,1139509.432,1011.1125,1.375,57.41666667,19.81938622,308.5,17.56625
2021-01-16 18:00:00,1128235.432,1011.7125,1,66.5,15.19688622,302,16.8375
2021-01-16 19:00:00,1114441.932,1012.7125,0.875,70.16666667,11.91688622,324.25,12.13875
2021-01-16 20:00:00,1089895.432,1013.7125,0,69.83333333,11.21688622,305.875,11.73625
2021-01-16 21:00:00,1067649.432,1013.925,0,67.66666667,9.816886217,11.625,7.34875
2021-01-16 22:00:00,1040844.932,1013.75,0,66.75,9.334386217,54.25,6.6625
2021-01-16 23:00:00,1009990.432,1013.325,0,66.33333333,7.996886217,83.75,1.42875
2021-01-17 00:00:00,989522.4321,1012.8,0,65.08333333,7.641886217,45.375,1.075
2021-01-17 01:00:00,976267.9321,1012.4875,0.875,68.16666667,6.326886217,42.875,1.6675
2021-01-17 02:00:00,967445.4321,1012.1,6.875,72.75,4.739386217,55.625,2.07625
2021-01-17 03:00:00,959119.4321,1011.725,12.625,72.16666667,4.426886217,60.125,2.40875
2021-01-17 04:00:00,957039.4321,1011.5125,16.75,72.25,4.209386217,50.25,2.73125
2021-01-17 05:00:00,957538.9321,1011.8125,22,75,2.864386217,48.125,2.77
2021-01-17 06:00:00,965778.4321,1012.6125,14.625,73.58333333,2.569386217,52.25,3.235
2021-01-17 07:00:00,974457.9321,1013.75,10,71.91666667,2.696886217,58.125,3.345
,,,,,,,
,,,,,,,
,,,,,,,
,,,,,,,
,,,,,,,
,,,,,,,
,,,,,,,
,,,,,,,
,,,,,,,
,,,,,,,
,,,,,,,
,,,,,,,
,,,,,,,
,,,,,,,
,,,,,,,
,,,,,,,
,,,,,,,
,,,,,,,
,,,,,,,
,,,,,,,
,,,,,,,
,,,,,,,
,,,,,,,
,,,,,,,
,,,,,,,
,,,,,,,
,,,,,,,
,,,,,,,
,,,,,,,
,,,,,,,
,,,,,,,
,,,,,,,
,,,,,,,
,,,,,,,
,,,,,,,
,,,,,,,
,,,,,,,
,,,,,,,
,,,,,,,
,,,,,,,
,,,,,,,
,,,,,,,
,,,,,,,
,,,,,,,
,,,,,,,
,,,,,,,
,,,,,,,
,,,,,,,
,,,,,,,
,,,,,,,
,,,,,,,
,,,,,,,
,,,,,,,
,,,,,,,
,,,,,,,
,,,,,,,
,,,,,,,
,,,,,,,
,,,,,,,
,,,,,,,
,,,,,,,
,,,,,,,
,,,,,,,
,,,,,,,
,,,,,,,
,,,,,,,
,,,,,,,
,,,,,,,
,,,,,,,
,,,,,,,
,,,,,,,
,,,,,,,
,,,,,,,
,,,,,,,
,,,,,,,
,,,,,,,
,,,,,,,
,,,,,,,
,,,,,,,
,,,,,,,
,,,,,,,
,,,,,,,
,,,,,,,
,,,,,,,
,,,,,,,
,,,,,,,
,,,,,,,
,,,,,,,
