"Team","2021-01-18","2021-01-19","2021-01-20","2021-01-21","2021-01-22","2021-01-23","2021-01-24","2021-01-25","2021-01-26","2021-01-27","2021-01-28","2021-01-29","2021-01-30","2021-01-31","2021-02-01","2021-02-02","2021-02-03","2021-02-04","2021-02-05","2021-02-06","2021-02-07","2021-02-08","2021-02-09","2021-02-10","2021-02-11","2021-02-12","2021-02-13","2021-02-14","2021-02-15","2021-02-16","Overall","Missed"
"Team 4",4151,7353,6185,6532,8519,12069,11968,20157,6005,7560,7860,17720,14980,12806,10096,7992,16891,11255,6562,4806,6658,22629,14067,20054,3301,3956,9902,12190,18250,12844,10844,0
"Team 14",25183,15816,6287,6129,11510,17131,15192,10176,9131,8764,9996,19255,6043,9595,6765,7183,11519,5421,14980,7701,1661,19995,17808,5594,4514,12871,11365,8615,17934,31319,11849,0
"Team 7",14597,7985,6344,5558,9674,13988,11218,13515,6634,9311,14986,11286,6096,11790,4899,9793,15941,9214,8007,5215,4950,14700,16131,21053,9743,8849,11975,16109,29257,27890,11890,0
"Team 36",15627,14257,11166,4990,15926,12622,5438,6409,6348,7965,11302,17400,9083,7599,30747,9545,15508,8221,8010,9000,6674,11350,20642,15663,10483,6325,16798,22939,17283,13074,12280,1
"Team 19",15578,7508,12995,9969,12304,14143,11365,19906,7722,14543,17003,15223,16299,6976,12659,9077,10710,9174,8233,6594,3468,18137,24844,18945,6334,7169,7443,11695,23760,9723,12317,0
"Team 23",15861,17103,13350,6395,10578,17852,7482,28189,11367,23742,19557,18685,8092,12342,24787,24154,4772,4646,8370,7804,3923,11170,11780,14795,7669,9429,13480,20298,18197,22556,13947,0
"Team 9",34289,17025,9206,8789,13537,10226,7031,24710,16151,11147,12131,16628,16887,4870,11763,19001,19393,12687,4581,10657,7350,13148,24201,10653,13393,8737,16456,22271,16960,12212,14203,0
"Team 25",16325,48204,6969,9999,11397,13780,9383,12835,7520,8962,9895,16527,10644,13079,6215,7669,16799,9817,14276,9494,5689,22486,20838,19407,6836,10340,16130,21544,23124,21696,14263,0
"Team 13",9838,15908,9983,12231,13274,12028,11119,13535,7658,8835,9111,11643,11969,15857,22039,16991,16508,8468,18020,3807,8200,25453,27689,14565,7811,8543,12442,22738,28610,32503,14579,2
"Team 26",14127,38859,5733,15175,19357,11069,7023,13846,13822,7850,8669,16687,16839,10045,8616,7796,23863,16005,9229,3278,3304,15157,21211,18966,12936,9872,19801,32791,26954,32503,15380,3
"Benchmark",15627,15908,13961,4981,13552,6728,5125,16675,9331,10792,10511,18075,17908,15165,25371,17635,20396,15482,8523,5040,1829,23964,29502,18966,12139,9945,17229,25633,26954,32503,15515,0
"Team 21",13394,16589,9561,4100,14623,25917,7586,11904,20568,18249,28394,18075,18825,15266,25371,17635,23249,12669,5015,8604,7598,9667,29502,13832,9164,11498,9914,17502,18683,24633,15586,3
"Team 18",16983,46110,10681,18777,11856,7756,10375,8364,10589,9454,8664,34144,26423,29591,9706,11299,17827,9489,5803,9834,7250,16545,16209,16663,7704,11362,12725,22279,21843,22487,15626,0
"Team 28",14349,12211,11228,18185,8206,9586,7080,8521,14722,10180,17274,18638,11681,11309,8008,25474,26967,14398,6605,9565,7414,27491,35538,33208,11495,9048,16302,18605,20671,32503,15882,1
"Team 1",21839,42362,20145,7134,10359,19121,16578,7732,13617,6710,10496,20215,11960,8726,25371,7722,15392,11645,4015,3617,4308,26810,30524,26409,12066,10492,16281,18731,26954,40331,16589,2
"Team 29",19844,97237,11316,4981,11398,6728,9242,13382,7233,6178,11016,11654,11310,15718,20859,18666,15446,10022,18427,5051,13420,23143,30694,15110,8069,8868,14235,22808,18095,32503,17088,3
"Team 6",63038,48183,42076,11125,13917,7659,7177,7073,11616,10922,8286,22311,24818,25422,11300,12334,10522,9313,11529,10846,9779,17854,15986,19919,7836,5909,11039,23699,21788,19685,17432,0
"Team 27",9396,70389,6606,5525,15202,11976,12439,25267,13762,3708,11554,14540,9303,13610,4416,18579,14273,25708,9186,5918,7771,26266,38337,42692,22883,9945,21320,21219,26649,34078,18417,1
"Team 10",8529,100469,3657,7367,18367,15502,5412,12625,7475,12616,7070,11810,11219,15165,11481,7568,7356,12637,9249,5578,79513,33738,33663,37519,14337,8745,5784,10596,30461,38989,19483,0
"Team 11",15627,32561,10427,4981,48943,6728,43422,32443,14260,19825,11337,27673,27214,69189,8978,18763,19795,15482,14459,26176,6401,29043,28360,8325,19773,10277,17229,20986,16773,17674,21438,5
"Team 2",161684,156670,135588,136492,145905,132816,87043,22758,21228,49144,31248,16861,31484,117311,26982,129286,102424,22670,59197,52517,87264,38263,44809,20408,23765,20368,41636,57833,12893,20241,66893,0
